<?xml version="1.0" encoding="UTF-8"?>
<svg width="233px" height="221px" viewBox="0 0 233 221" version="1.1" xmlns="http://www.w3.org/2000/svg" xmlns:xlink="http://www.w3.org/1999/xlink">
    <title>SnippetsHero</title>
    <g id="Page-1" stroke="none" stroke-width="1" fill="none" fill-rule="evenodd">
        <g id="SnippetsHero">
            <path d="M217.858026,170.345449 C219.901679,164.502373 218.42317,158.218921 219.454511,152.219521 C220.499172,146.140052 224.301051,141.295922 227.585358,136.270686 C231.661247,130.034894 235.387013,121.175913 231.082783,114.528341 C222.462905,121.101564 209.616814,124.046932 198.599354,122.111949 C186.693267,120.020642 176.613909,112.852627 168.667638,103.982208 C160.527276,94.898273 155.239276,84.2339435 148.944672,73.9127637 C146.113242,69.2688047 142.895535,64.9794337 138.789201,61.3897067 C134.408856,57.5616814 79.1369827,50.8740754 79.0989258,51.0018034 C71.3372302,76.1241727 62.7554093,101.742203 49.1862376,124.266166 C24.7651536,160.779199 5.86802206,159.679213 0,160.283538 C-0.152572444,168.419998 11.1750505,169.272153 14.1682222,174.253543 C16.0958019,177.461992 11.0761027,182.163143 12.0332326,186.805196 C13.5726324,194.259169 33.9159244,190.884864 33.9159244,190.884864 C33.9159244,190.884864 37.0232666,201.110724 42.1304966,202.250744 C49.6562398,203.930271 56.5064737,198.556166 62.5613194,194.970252 C70.9680787,189.992675 81.0265056,186.444888 90.7329065,189.590427 C95.7659256,191.220388 98.9931469,194.306829 102.043404,198.50088 C103.805436,200.923899 105.767267,203.402202 108.901249,203.945522 C110.794578,204.271514 113.262565,203.173435 115.526948,199.595147 C117.502099,196.474391 119.658019,194.588974 123.399008,194.636634 C127.942997,194.693825 132.007469,197.397082 136.130929,198.985103 C140.010826,200.481617 144.081006,201.436717 148.212078,201.901875 C155.313487,202.700651 168.557273,201.167916 176.806096,196.621183 C182.341466,193.570963 184.130138,186.437263 193.132487,183.038175 C202.481154,179.507546 212.836424,184.694825 217.858026,170.345449" id="Fill-81" fill="#FFC107"></path>
            <path d="M78.3564256,82.9580287 C75.9763668,79.3073382 69.0019272,74.1440563 69,74.1421608 C71.4398012,70.9122665 72.7464246,70.5142161 76.3001319,65.4248578 C78.1328735,62.8015164 80.9831626,60 80.9831626,60 C80.9831626,60 81.1835886,67.7752505 86.2443453,77.1654481 C88.4066335,81.1800704 87.1867329,84.7340915 87.4488285,88.900352 L88,88.9117249 C87.5220611,90.7029515 86.9496906,92.7481722 86.27518,95 C85.7355716,93.6428378 84.9974642,92.1056052 84.070494,90.9000812 C82.4690131,88.8188465 80.9465463,86.929055 78.3564256,82.9580287 Z M120.223292,75.3571622 C124.344985,68.4083401 126.134868,60 126.134868,60 C126.134868,60 128.957083,62.8015164 130.771772,65.4248578 C134.290477,70.5142161 135.58423,70.9122665 138,74.1421608 C137.998092,74.1440563 131.092348,79.3073382 128.735732,82.9580287 C126.171124,86.929055 124.663653,88.8188465 123.077946,90.9000812 C122.160106,92.1056052 121.429269,93.6428378 120.894975,95 C120.32061,93.0628216 119.816847,91.2659085 119.385596,89.6642296 C119.64511,85.4979691 117.902932,79.2713241 120.223292,75.3571622 Z M143.725945,200.04595 C143.714538,192.956609 142.355242,173.437087 139.115744,164.280816 C137.195619,158.852265 134.503641,155.570728 133.480842,151.394919 C131.80596,144.555364 131.821169,138.310719 131.338286,133.471357 C130.581643,125.871004 128.690035,118.762596 124.275648,105.937715 C125.621637,105.802335 126.996142,104.991961 128.022744,103.388374 C129.882033,100.490096 130.406741,94.2931198 132.958035,91.9077606 C136.682318,88.4260133 142.362846,86.650818 144.849503,83.7449128 C149.199252,78.6557652 151.645986,78.1123381 150.85132,74.989062 C149.606091,70.1001244 146.220207,60.316529 144.454072,57.2676167 C142.060569,53.1375704 134.161441,44.089985 133.362973,41.7999639 C132.292646,38.731984 129.243259,35.7879436 124.150174,35.8985358 C122.119785,35.9423913 116.754841,34.735411 114.427878,33.6733446 C112.100914,32.6112782 110.142767,32.6112782 109.954556,29.77783 C109.884215,28.7386448 109.867105,27.7013663 109.870907,26.8013746 C110.218811,26.3952343 110.502077,26.0157887 110.663672,25.7278677 C111.53058,24.1776702 112.319542,22.625566 112.897481,20.9514291 C113.367056,21.0925294 114.070468,21.1516391 114.460196,20.4518574 C115.074256,19.3402152 116.676895,16.8690518 115.690217,15.5095305 C115.325203,15.0061454 114.925969,14.8688585 114.555252,14.8974599 C114.884145,12.5921848 115.275774,9.06658197 114.817606,7.65939167 C116.802369,7.52591833 117.507682,6.29033661 117.507682,6.29033661 C117.507682,6.29033661 116.003901,6.33228537 115.258664,6.11110098 C116.003901,5.8899166 117.551408,5.00327231 117.551408,5.00327231 C117.551408,5.00327231 113.933588,4.42933697 109.169396,1.42046665 C104.403304,-1.59031043 96.7513197,1.02576693 95.7133115,1.64165103 C94.6657977,2.26134866 94.2114315,3.63231048 94.2114315,3.63231048 C94.2114315,3.63231048 93.5916683,2.97257085 92.8445305,2.61409961 C93.2418633,4.20815258 93.585965,6.15495651 93.585965,9.91699779 C93.585965,12.4110424 93.585965,14.1233146 93.585965,14.9699169 C93.1315987,14.8192827 92.5916823,14.8459774 92.1107005,15.5095305 C91.1259235,16.8690518 92.7266614,19.3402152 93.3426224,20.4518574 C93.7304496,21.1516391 94.4357629,21.0925294 94.9034369,20.9514291 C95.4756723,22.6064984 96.2532279,24.1433485 97.1106303,25.6763851 C97.139147,26.7575191 97.1467514,28.2600475 97.0459924,29.77783 C96.855881,32.6112782 94.8996347,32.6112782 92.5707701,33.6733446 C90.2438066,34.735411 84.880764,35.9519251 82.8503743,35.8985358 C78.7059458,35.7879436 75.2212039,37.9864401 73.3923323,42.4463562 C72.4740942,44.6887083 64.9399795,53.1375704 62.546477,57.2676167 C60.7803421,60.316529 57.3944581,70.1001244 56.1492285,74.989062 C55.3526617,78.1123381 57.8012965,78.6557652 62.1510453,83.7449128 C64.6377024,86.650818 70.3163298,88.4260133 74.0425132,91.9077606 C76.5919071,94.2931198 77.1185157,100.490096 78.9778051,103.388374 C80.0044067,104.991961 81.3789121,105.802335 82.7249008,105.937715 C78.3105141,118.762596 76.4189057,125.871004 75.6603612,133.471357 C75.1793794,138.310719 75.1945883,144.555364 73.5197069,151.394919 C72.4969076,155.570728 69.8049302,158.852265 67.8848051,164.280816 C64.6453068,173.437087 63.2860103,192.956609 63.2746037,200.04595 C63.263197,205.995047 60.3316792,209.587386 58.7252379,212.003254 C56.7480794,214.977802 58.5921599,217.214434 60.244228,218.518659 C62.8525564,220.574149 65.1338931,222.417987 69.1908704,219.443439 C73.2497487,216.466983 71.0938855,210.235685 71.15282,209.045866 C71.2763924,206.584236 70.4836279,203.399944 71.603384,201.020305 C73.3505078,197.305933 82.3142602,181.035533 84.8883685,166.912148 C86.3845452,158.709258 87.5423236,153.206343 88.9947747,150.716112 C93.7646697,142.547544 101.104871,125.72037 103.500274,119.073398 C105.893777,125.72037 113.235879,142.547544 118.003873,150.716112 C119.458225,153.206343 120.616004,158.709258 122.11218,166.912148 C124.686289,181.035533 133.650041,197.305933 135.397165,201.020305 C136.516921,203.399944 135.724156,206.584236 135.847729,209.045866 C135.906663,210.235685 133.7508,216.466983 137.807777,219.443439 C141.866656,222.417987 144.147992,220.574149 146.75442,218.518659 C148.408389,217.214434 150.252469,214.977802 148.275311,212.003254 C146.66887,209.587386 143.737352,205.995047 143.725945,200.04595 L143.725945,200.04595 Z" id="Fill-82" fill="#181917"></path>
            <g id="Logo" transform="translate(89.773834, 41.123505)">
                <polygon id="Path" fill="#FFC107" points="5.73082102 0 21.269179 0 27 5.66203592 13.5 19 8.01351137e-15 5.66203592"></polygon>
                <text id="{-}" fill="#222529" fill-rule="nonzero" font-family="HelveticaNeue-Medium, Helvetica Neue" font-size="10" font-weight="400" letter-spacing="-0.24">
                    <tspan x="9.51" y="11">{ }</tspan>
                </text>
            </g>
        </g>
    </g>
</svg>